// Jest Snapshot v1, https://goo.gl/fbAQLP

exports[`<AddToBag /> @renders should render default state 1`] = `
<Component
  id="qubit-pdp-add-to-bag"
>
  <div
    className="AddToBag "
  >
    <Button
      className=""
      clickHandler={[Function]}
    >
      Add to bag
    </Button>
    <DeliveryCutoffMessage
      message=""
    />
  </div>
</Component>
`;
