// Jest Snapshot v1, https://goo.gl/fbAQLP

exports[`<Signin /> @renders in default state 1`] = `
<section
  className="SignIn"
>
  <HelmetWrapper
    link={
      Array [
        Object {
          "href": "http://www.topshop.com/login",
          "rel": "canonical",
        },
      ]
    }
    title="Sign In"
  />
  <div
    className="SignIn-loginSection"
  >
    <Connect(Login)
      className="Login--signin"
      getNextRoute={[Function]}
    />
    <Connect(ForgetPassword)
      className="ForgetPassword--signin"
    />
  </div>
  <div
    className="SignIn-registerSection"
  >
    <Connect(Register)
      className="Register--signin"
      getNextRoute={[Function]}
    />
  </div>
</section>
`;

exports[`<Signin /> @renders with search having return param 1`] = `
<section
  className="SignIn"
>
  <HelmetWrapper
    link={
      Array [
        Object {
          "href": "http://www.topshop.com/login",
          "rel": "canonical",
        },
      ]
    }
    title="Sign In"
  />
  <div
    className="SignIn-loginSection"
  >
    <Connect(Login)
      className="Login--signin"
      getNextRoute={[Function]}
    />
    <Connect(ForgetPassword)
      className="ForgetPassword--signin"
    />
  </div>
  <div
    className="SignIn-registerSection"
  >
    <Connect(Register)
      className="Register--signin"
      getNextRoute={[Function]}
    />
  </div>
</section>
`;
