// Jest Snapshot v1, https://goo.gl/fbAQLP

exports[`<QuickViewOrderSummary/> @renders should render correct default state 1`] = `
<Button
  className="QuickViewOrderSummary-button"
  clickHandler={[Function]}
/>
`;
