// Jest Snapshot v1, https://goo.gl/fbAQLP

exports[`Find in Store actions setStoreStockList 1`] = `
Object {
  "storeListOpen": true,
  "type": "SET_STORE_STOCK_LIST",
}
`;

exports[`Find in Store actions setStoreStockListProps 1`] = `
Object {
  "storeLocatorProps": Object {},
  "type": "SET_STORE_STOCK_LIST_PROPS",
}
`;
