// Jest Snapshot v1, https://goo.gl/fbAQLP

exports[`Analytics Actions clearInternalNavigation() 1`] = `
Object {
  "type": "CLEAR_INT_NAV",
}
`;

exports[`Analytics Actions setAdobeAnalyticsEnv(environment) 1`] = `
Object {
  "environment": "foo",
  "type": "SET_ADOBE_ANALYTICS_ENV",
}
`;

exports[`Analytics Actions setAdobeAnalyticsEnv(environment) 2`] = `
Object {
  "percentagePageViewed": 87,
  "type": "SET_PERCENTAGE_VIEWED",
}
`;

exports[`Analytics Actions setInternalNavigation(intNav) 1`] = `
Object {
  "intNav": Object {
    "details": "Footer:Gift card",
    "type": "Footer",
  },
  "type": "SET_INT_NAV",
}
`;
