// Jest Snapshot v1, https://goo.gl/fbAQLP

exports[`<ErrorSession /> @renders should render if \`error.sessionExpired\` prop is \`true\` 1`] = `
<div
  className="ErrorSession ErrorSession-container "
>
  <div
    className="ErrorSession-content"
  >
    <div
      className="ErrorSession-icon"
    >
      <Connect(Image)
        className="ErrorSession-errorImage"
        src="/assets/{brandName}/images/error.svg"
      />
    </div>
    <p
      className="ErrorSession-details"
    >
      Unfortunately your session has timed out.
    </p>
    <Button
      clickHandler={[Function]}
    >
      Continue Shopping
    </Button>
  </div>
</div>
`;
