{
  "accountTypes": [
    "FULL_SIGNATORY",
    "CURRENT",
    "SINGLE_BUSINESS"
  ],
  "groups": [
    "jenkins"
  ],
  "data": {
    "FULL_SIGNATORY": {
      "Banks": {
        "CURRENT_DORMANT": "Business Account",
        "CURRENT": "Business Current Account",
        "SAVINGS": "Bus Instant Access"
      },
      "Industrial Engineering": {
        "CURRENT_DORMANT": "Business Account",
        "CURRENT": "Business Account",
        "SAVINGS": "Bus Instant Access",
        "TREASURY_FTD": "Fixed Term Deposit"
      },
      "Pharmaceuticals & Biotechnology": {
        "CURRENT_DORMANT": "Business Account",
        "CURRENT": "Business Account",
        "SAVINGS": "Bus Instant Access",
        "TREASURY_FTD": "Fixed Term Deposit"
      }
    }
  }
}
