{
  "data": {
    "FULL_SIGNATORY": {
      "First Business Limited": {
        "CURRENT": "Business Extra Account",
        "SAVINGS": "Business Instant Access"
      },
      "Second Business Limited": {
        "CURRENT": "Business Current Account"
      }
    }
  }
}
