{
  "data": {
    "FULL_SIGNATORY": {
      "First Business Limited": {
        "CREDITCARD": "Business Charge Card"
      }
    },
    "FULL_ACCESS_DELEGATE": {
      "Second Business Limited": {
        "CREDITCARD": "Business Charge Card"
      }
    }
  }
}
