// Jest Snapshot v1, https://goo.gl/fbAQLP

exports[`<CollectFromStore/> @renders in default state 1`] = `
<div
  className="CollectFromStore"
>
  <h3
    className="CollectFromStore-title"
  >
    Where do you want to collect from?
  </h3>
  <div
    className="CollectFromStore-row"
  >
    <div
      className="CollectFromStore-columnLeft"
    >
      <form
        className="CollectFromStore-search"
        onSubmit={[Function]}
      >
        <Connect(UserLocatorInput)
          selectedCountry="United Kingdom"
        />
      </form>
      <Connect(StoreList)
        fetchStores={[Function]}
        hasFilters={true}
        name="CollectFromStore"
        selectDeliveryStore={[Function]}
        storeType="collectFromStore"
      />
    </div>
    <div
      className="CollectFromStore-columnRight"
    >
      <Connect(GoogleMap) />
    </div>
  </div>
</div>
`;

exports[`<CollectFromStore/> @renders when stores exist and getStoresLoading is false 1`] = `
<div
  className="CollectFromStore"
>
  <h3
    className="CollectFromStore-title"
  >
    Where do you want to collect from?
  </h3>
  <div
    className="CollectFromStore-row"
  >
    <div
      className="CollectFromStore-columnLeft"
    >
      <form
        className="CollectFromStore-search"
        onSubmit={[Function]}
      >
        <Connect(UserLocatorInput)
          selectedCountry="United Kingdom"
        />
      </form>
      <Connect(StoreList)
        fetchStores={[Function]}
        hasFilters={true}
        name="CollectFromStore"
        selectDeliveryStore={[Function]}
        storeType="collectFromStore"
      />
    </div>
    <div
      className="CollectFromStore-columnRight"
    >
      <Connect(GoogleMap) />
    </div>
  </div>
</div>
`;

exports[`<CollectFromStore/> @renders when stores exist and getStoresLoading is true 1`] = `
<div
  className="CollectFromStore"
>
  <h3
    className="CollectFromStore-title"
  >
    Where do you want to collect from?
  </h3>
  <div
    className="CollectFromStore-row"
  >
    <div
      className="CollectFromStore-columnLeft"
    >
      <form
        className="CollectFromStore-search"
        onSubmit={[Function]}
      >
        <Connect(UserLocatorInput)
          selectedCountry="United Kingdom"
        />
      </form>
    </div>
    <div
      className="CollectFromStore-columnRight"
    >
      <Connect(GoogleMap) />
    </div>
  </div>
  <div
    className="CollectFromStore-espotContainer"
  />
</div>
`;

exports[`<CollectFromStore/> @renders when stores is empty 1`] = `
<div
  className="CollectFromStore"
>
  <h3
    className="CollectFromStore-title"
  >
    Where do you want to collect from?
  </h3>
  <div
    className="CollectFromStore-row"
  >
    <div
      className="CollectFromStore-columnLeft"
    >
      <form
        className="CollectFromStore-search"
        onSubmit={[Function]}
      >
        <Connect(UserLocatorInput)
          selectedCountry="United Kingdom"
        />
      </form>
    </div>
    <div
      className="CollectFromStore-columnRight"
    >
      <Connect(GoogleMap) />
    </div>
  </div>
  <div
    className="CollectFromStore-espotContainer"
  />
</div>
`;
