// Jest Snapshot v1, https://goo.gl/fbAQLP

exports[`<CMSIframe>  @renders in default state 1`] = `
<div
  className="CMSIframe-container"
  style={
    Object {
      "height": "20000px",
      "width": "1300px",
    }
  }
>
  <HelmetWrapper
    link={
      Array [
        Object {
          "href": "https://www.topshop.com/a/fake/location",
          "rel": "canonical",
        },
      ]
    }
  />
  <iframe
    className="CMSIframe-frame"
    frameBorder="0"
    height="20000px"
    id="CMSIframe"
    src="/cmsfeaturecontent?apiEnvironment=prod&storeCode=tsuk&pathname=%2Fa%2Ffake%2Flocation"
    style={
      Object {
        "height": "20000px",
        "left": "0px",
        "top": "0px",
        "transform": "scale(1)",
        "width": "1300px",
      }
    }
  />
</div>
`;

exports[`<CMSIframe>  @renders should encode url with query parmas as well 1`] = `
<div
  className="CMSIframe-container"
  style={
    Object {
      "height": "20000px",
      "width": "1300px",
    }
  }
>
  <HelmetWrapper
    link={
      Array [
        Object {
          "href": "https://www.topshop.com/a/fake/location",
          "rel": "canonical",
        },
      ]
    }
  />
  <iframe
    className="CMSIframe-frame"
    frameBorder="0"
    height="20000px"
    id="CMSIframe"
    src="/cmsfeaturecontent?apiEnvironment=prod&storeCode=tsuk&pathname=%2Fa%2Ffake%2Flocation%3Fwho%3Del%26page%3Dxyz%2Babc"
    style={
      Object {
        "height": "20000px",
        "left": "0px",
        "top": "0px",
        "transform": "scale(1)",
        "width": "1300px",
      }
    }
  />
</div>
`;
