// Jest Snapshot v1, https://goo.gl/fbAQLP

exports[`<BuyNow /> @renders in default state 1`] = `
<Button
  className="BuyNow Button Button--secondary "
  clickHandler={[Function]}
>
  Buy Now
</Button>
`;

exports[`<BuyNow /> @renders in disabled state 1`] = `
<Button
  className="BuyNow Button Button--secondary "
  clickHandler={[Function]}
  isDisabled={true}
>
  Buy Now
</Button>
`;

exports[`<BuyNow /> @renders in hidden state 1`] = `""`;

exports[`<BuyNow /> @renders with className 1`] = `
<Button
  className="BuyNow Button Button--secondary fake-class"
  clickHandler={[Function]}
>
  Buy Now
</Button>
`;
