// Jest Snapshot v1, https://goo.gl/fbAQLP

exports[`<ForgotPassword /> @renders in default state 1`] = `
<section
  className="ForgotPassword"
>
  <div
    className="ForgotPassword-inner"
  >
    <div
      className="ForgotPassword-textContainer"
    >
      <LoginRegisterHeader />
      <p
        className="ForgotPassword-text"
      />
    </div>
    <ForgetPasswordForm
      className="ForgotPassword-form"
    />
    <button
      className="ForgotPassword-cancel"
      onClick={[Function]}
    />
  </div>
</section>
`;
