// Jest Snapshot v1, https://goo.gl/fbAQLP

exports[`<Subcategory /> @renders should render default state 1`] = `
<li
  className="MegaNav-subcategoryItem"
>
  <Link
    className="MegaNav-subcategoryItemLink"
    onClick={
      [MockFunction] {
        "calls": Array [
          Array [
            Object {
              "button": 0,
            },
          ],
        ],
      }
    }
    onTouchEnd={[Function]}
    onlyActiveOnIndex={false}
    style={
      Object {
        "paddingTop": 20,
      }
    }
    title="This is a label"
    to="http://www.topman.com/category/jeans/blue-jeans.html"
  >
    <Connect(ImageContainer)
      className="MegaNav-imageContainer"
      subcategory={
        Object {
          "image": Object {
            "span": 1,
            "url": "http://topman.com",
          },
          "label": "This is a label",
          "paddingTop": 20,
          "redirectionUrl": "",
          "url": "http://www.topman.com/category/jeans/blue-jeans.html",
        }
      }
    />
  </Link>
</li>
`;

exports[`<Subcategory /> @renders should render image content with <Link> tags 1`] = `
<li
  className="MegaNav-subcategoryItem"
>
  <Link
    className="MegaNav-subcategoryItemLink"
    onClick={
      [MockFunction] {
        "calls": Array [
          Array [
            Object {
              "button": 0,
            },
          ],
        ],
      }
    }
    onTouchEnd={[Function]}
    onlyActiveOnIndex={false}
    style={
      Object {
        "paddingTop": 20,
      }
    }
    title="This is a label"
    to="http://www.topman.com/category/jeans/blue-jeans.html"
  >
    <Connect(ImageContainer)
      className="MegaNav-imageContainer"
      subcategory={
        Object {
          "image": Object {
            "span": 1,
            "url": "http://topman.com",
          },
          "label": "This is a label",
          "paddingTop": 20,
          "redirectionUrl": "",
          "url": "http://www.topman.com/category/jeans/blue-jeans.html",
        }
      }
    />
  </Link>
</li>
`;

exports[`<Subcategory /> @renders should render text content with <Link> tags 1`] = `
<li
  className="MegaNav-subcategoryItem"
>
  <Link
    className="MegaNav-subcategoryItemLink"
    onClick={
      [MockFunction] {
        "calls": Array [
          Array [
            Object {
              "button": 0,
            },
          ],
        ],
      }
    }
    onTouchEnd={[Function]}
    onlyActiveOnIndex={false}
    style={
      Object {
        "paddingTop": 20,
      }
    }
    title="This is a label"
    to="http://www.topman.com/category/jeans/blue-jeans.html"
  >
    <div
      className="MegaNav-ItemContainer"
    >
      <span
        className="MegaNav-subcategoryItemLabel"
      >
        This is a label
      </span>
    </div>
  </Link>
</li>
`;

exports[`<Subcategory /> @renders should render text content with <a> tags 1`] = `
<li
  className="MegaNav-subcategoryItem"
>
  <a
    className="MegaNav-subcategoryItemLink"
    href="/blog/"
    style={
      Object {
        "paddingTop": 20,
      }
    }
    title="This is a label"
  >
    <div
      className="MegaNav-ItemContainer"
    >
      <span
        className="MegaNav-subcategoryItemLabel"
      >
        This is a label
      </span>
    </div>
  </a>
</li>
`;
