// Jest Snapshot v1, https://goo.gl/fbAQLP

exports[`<StoreDelivery /> @renders UserLocatorInput - isMobile = true, no storeDetails 1`] = `
<div
  aria-label="Store Delivery"
  className="StoreDeliveryV2"
>
  <form
    onSubmit={[Function]}
  >
    <Connect(UserLocatorInput)
      selectedCountry="United Kingdom"
    />
  </form>
</div>
`;

exports[`<StoreDelivery /> @renders UserLocatorInput - isMobile = true, storeUpdating = true 1`] = `
<div
  aria-label="Store Delivery"
  className="StoreDeliveryV2"
>
  <form
    onSubmit={[Function]}
  >
    <Connect(UserLocatorInput)
      selectedCountry="United Kingdom"
    />
  </form>
</div>
`;

exports[`<StoreDelivery /> @renders hides the titles of its children components when "titlesHidden" = true  1`] = `
<div
  aria-label="Store Delivery"
  className="StoreDeliveryV2"
>
  <div>
    <div
      className="StoreDeliveryV2-storeInfo"
    >
      <CheckoutTitle
        separator={true}
      >
        Collect from
      </CheckoutTitle>
      <div
        className="StoreDeliveryV2-storeAddress"
      >
        <p
          className="StoreDeliveryV2-storeAddressLine"
        >
          Topshop Oxford Circus
        </p>
        <p
          className="StoreDeliveryV2-storeAddressLine"
        >
          214 Oxford Street
        </p>
        <p
          className="StoreDeliveryV2-storeAddressLine"
        >
          West End
        </p>
        <p
          className="StoreDeliveryV2-storeAddressLine"
        >
          W1W 8LG
        </p>
      </div>
      <Button
        className="StoreDeliveryV2-changeStoreCTA"
        clickHandler={[Function]}
      >
        Change store
      </Button>
    </div>
    <DeliveryDetailsForm />
    <Connect(DeliveryMethods) />
    <Button
      className="DeliveryContainer-nextButton"
      clickHandler={[Function]}
      isActive={true}
    >
      Proceed to Payment
    </Button>
  </div>
</div>
`;

exports[`<StoreDelivery /> @renders isMobile = false and no storeDetails 1`] = `
<div
  aria-label="Store Delivery"
  className="StoreDeliveryV2"
>
  <div>
    <div
      className="StoreDeliveryV2-storeInfo"
    >
      <Message
        isCompact={false}
        message=""
        type="error"
      />
      <Button
        className="StoreDeliveryV2-changeStoreCTA"
        clickHandler={[Function]}
      >
        Select store
      </Button>
    </div>
    <DeliveryDetailsForm />
    <Connect(DeliveryMethods) />
    <Button
      className="DeliveryContainer-nextButton"
      clickHandler={[Function]}
      isActive={false}
    >
      Proceed to Payment
    </Button>
  </div>
</div>
`;

exports[`<StoreDelivery /> @renders isMobile = false and with storeDetails 1`] = `
<div
  aria-label="Store Delivery"
  className="StoreDeliveryV2"
>
  <div>
    <div
      className="StoreDeliveryV2-storeInfo"
    >
      <CheckoutTitle
        separator={true}
      >
        Collect from
      </CheckoutTitle>
      <div
        className="StoreDeliveryV2-storeAddress"
      >
        <p
          className="StoreDeliveryV2-storeAddressLine"
        >
          Topshop Oxford Circus
        </p>
        <p
          className="StoreDeliveryV2-storeAddressLine"
        >
          214 Oxford Street
        </p>
        <p
          className="StoreDeliveryV2-storeAddressLine"
        >
          West End
        </p>
        <p
          className="StoreDeliveryV2-storeAddressLine"
        >
          W1W 8LG
        </p>
      </div>
      <Button
        className="StoreDeliveryV2-changeStoreCTA"
        clickHandler={[Function]}
      >
        Change store
      </Button>
    </div>
    <DeliveryDetailsForm />
    <Connect(DeliveryMethods) />
    <Button
      className="DeliveryContainer-nextButton"
      clickHandler={[Function]}
      isActive={true}
    >
      Proceed to Payment
    </Button>
  </div>
</div>
`;

exports[`<StoreDelivery /> @renders isMobile = true and deliveryStoreCode starts with "S" 1`] = `
<div
  aria-label="Store Delivery"
  className="StoreDeliveryV2"
>
  <div>
    <div
      className="StoreDeliveryV2-storeInfo"
    >
      <CheckoutTitle
        separator={true}
      >
        Your order will be delivered to
      </CheckoutTitle>
      <div
        className="StoreDeliveryV2-storeAddress"
      >
        <p
          className="StoreDeliveryV2-storeAddressLine"
        >
          Hermes Oxford Circus
        </p>
        <p
          className="StoreDeliveryV2-storeAddressLine"
        >
          214 Oxford Street
        </p>
        <p
          className="StoreDeliveryV2-storeAddressLine"
        >
          West End
        </p>
        <p
          className="StoreDeliveryV2-storeAddressLine"
        >
          W1W 8LG
        </p>
      </div>
      <button
        className="Button--link"
        onClick={[Function]}
      >
        Deliver to another shop
      </button>
    </div>
    <DeliveryDetailsForm />
    <Connect(DeliveryMethods) />
    <Button
      className="DeliveryContainer-nextButton"
      clickHandler={[Function]}
      isActive={true}
    >
      Proceed to Payment
    </Button>
  </div>
</div>
`;

exports[`<StoreDelivery /> @renders isMobile = true and with storeDetails 1`] = `
<div
  aria-label="Store Delivery"
  className="StoreDeliveryV2"
>
  <div>
    <div
      className="StoreDeliveryV2-storeInfo"
    >
      <CheckoutTitle
        separator={true}
      >
        Your order will be delivered to
      </CheckoutTitle>
      <div
        className="StoreDeliveryV2-storeAddress"
      >
        <p
          className="StoreDeliveryV2-storeAddressLine"
        >
          Topshop Oxford Circus
        </p>
        <p
          className="StoreDeliveryV2-storeAddressLine"
        >
          214 Oxford Street
        </p>
        <p
          className="StoreDeliveryV2-storeAddressLine"
        >
          West End
        </p>
        <p
          className="StoreDeliveryV2-storeAddressLine"
        >
          W1W 8LG
        </p>
      </div>
      <button
        className="Button--link"
        onClick={[Function]}
      >
        Deliver to another store
      </button>
    </div>
    <DeliveryDetailsForm />
    <Connect(DeliveryMethods) />
    <Button
      className="DeliveryContainer-nextButton"
      clickHandler={[Function]}
      isActive={true}
    >
      Proceed to Payment
    </Button>
  </div>
</div>
`;
