{ "basket": {
    "orderId": 401056470,
    "subTotal": "92.00",
    "total": "92.00",
    "totalBeforeDiscount": "92.00",
    "deliveryOptions": [
      {
        "selected": false,
        "deliveryOptionId": 45019,
        "deliveryOptionExternalId": "retail_store_standard",
        "label": "Free Collect From Store Standard £0.00",
        "enabled": true
      },
      {
        "selected": false,
        "deliveryOptionId": 45020,
        "deliveryOptionExternalId": "retail_store_express",
        "label": "Collect From Store Express £3.00",
        "enabled": true
      },
      {
        "selected": true,
        "deliveryOptionId": 47524,
        "deliveryOptionExternalId": "retail_store_collection",
        "label": "Free Collect from ParcelShop £0.00",
        "enabled": true
      },
      {
        "selected": false,
        "deliveryOptionId": 28007,
        "deliveryOptionExternalId": "n6",
        "label": "Next or Named Day Delivery £6.00",
        "enabled": true
      },
      {
        "selected": false,
        "deliveryOptionId": 26504,
        "deliveryOptionExternalId": "s",
        "label": "UK Standard up to 4 days £3.95",
        "enabled": true
      }
    ],
    "promotions": [],
    "discounts": [],
    "products": [
      {
        "productId": 32808429,
        "catEntryId": 32808432,
        "orderItemId": 1051357585,
        "shipModeId": 26504,
        "lineNumber": "32G06PSLV",
        "size": "35",
        "name": "Gastro Court Shoes",
        "quantity": 2,
        "inStock": true,
        "unitPrice": "46.00",
        "totalPrice": 92,
        "assets": [
          {
            "assetType": "IMAGE_SMALL",
            "index": 1,
            "url": "https://images.topshop.com/i/TopShop/TS32G06PSLV_M_1.jpg?$Thumb$"
          },
          {
            "assetType": "IMAGE_THUMB",
            "index": 1,
            "url": "https://images.topshop.com/i/TopShop/TS32G06PSLV_M_1.jpg?$Small$"
          },
          {
            "assetType": "IMAGE_NORMAL",
            "index": 1,
            "url": "https://images.topshop.com/i/TopShop/TS32G06PSLV_M_1.jpg?$2col$"
          },
          {
            "assetType": "IMAGE_LARGE",
            "index": 1,
            "url": "https://images.topshop.com/i/TopShop/TS32G06PSLV_M_1.jpg?$Zoom$"
          }
        ],
        "lowStock": true,
        "items": [],
        "bundleProducts": [],
        "attributes": {
          "ecmcCreatedTimestamp": "2018-08-28-11.01.08.000182",
          "b_has360": "N",
          "b_hasImage": "N",
          "b_hasVideo": "N",
          "b_thumbnailImageSuffixes": "",
          "Department": "32",
          "has360": "N",
          "hasVideo": "N",
          "IFSeason": "AW18",
          "StyleCode": "0",
          "thumbnailImageSuffixes": "_",
          "countryExclusion": "",
          "CE3ThumbnailSuffixes": "F_1.jpg|M_1.jpg|M_2.jpg|M_3.jpg",
          "CE3BThumbnailSuffixes": "",
          "IOThumbnailSuffixes": "F_1.jpg|M_1.jpg|M_2.jpg|M_3.jpg",
          "IOBThumbnailSuffixes": "",
          "ThresholdMessage": "",
          "SizeFit": "",
          "ProductDefaultCopy": "",
          "shopTheOutfitBundleCode": "",
          "SearchKeywords": "",
          "RRP": "0.0",
          "NotifyMe": "N",
          "ecmcUpdatedTimestamp": "2018-09-12-15.38.02.000354",
          "EmailBackInStock": "N",
          "STORE_DELIVERY": "true",
          "STYLE_CODE": "GASTROGRP",
          "COLOUR_CODE": "cccccc",
          "REAL_COLOURS": "f2f2f2|3b3c41|9a9ea4",
          "ECMC_PROD_SIZE_GUIDE_1": "Shoes",
          "ECMC_PROD_PRODUCT_TYPE_1": "Shoes",
          "ECMC_PROD_COLOUR_1": "METALLIC",
          "ECMC_PROD_CE3_HEEL_HEIGHT_1": "High Heel",
          "ECMC_PROD_CE3_PRODUCT_TYPE_1": "Shoes",
          "ECMC_PROD_CE3_SHOE_STYLE_1": "Courts"
        },
        "colourSwatches": [],
        "tpmLinks": [],
        "bundleSlots": [],
        "ageVerificationRequired": false,
        "isBundleOrOutfit": false,
        "discountText": "",
        "restrictedDeliveryItem": false,
        "baseImageUrl": "https://images.topshop.com/i/TopShop/TS32G06PSLV_M_1",
        "iscmCategory": "HIGH",
        "freeItem": false
      }
    ],
    "savedProducts": [],
    "ageVerificationRequired": false,
    "restrictedDeliveryItem": false,
    "inventoryPositions": {
      "item_1": {
        "partNumber": "602018001262272",
        "catentryId": "32808432",
        "inventorys": [
          {
            "cutofftime": "2100",
            "quantity": 2,
            "ffmcenterId": 12556,
            "expressdates": [
              "2018-09-15",
              "2018-09-17"
            ]
          }
        ],
        "invavls": null
      }
    }
  },
  "deliveryLocations": [
    {
      "deliveryLocationType": "HOME",
      "selected": false,
      "enabled": true,
      "label": "undefined ",
      "deliveryMethods": []
    },
    {
      "deliveryLocationType": "STORE",
      "selected": false,
      "enabled": true,
      "label": "undefined ",
      "deliveryMethods": []
    },
    {
      "deliveryLocationType": "PARCELSHOP",
      "selected": true,
      "enabled": true,
      "label": "undefined ",
      "deliveryMethods": [
        {
          "shipModeId": 45020,
          "deliveryType": "STORE_EXPRESS",
          "label": "Collect From Store Express",
          "additionalDescription": "Collection date Saturday 15 September 2018",
          "selected": false,
          "deliveryOptions": [],
          "enabled": true,
          "cost": "3.00"
        },
        {
          "shipModeId": 45019,
          "deliveryType": "STORE_STANDARD",
          "label": "Collect From Store Standard",
          "additionalDescription": "Collection date Tuesday 18 September 2018",
          "selected": false,
          "deliveryOptions": [],
          "enabled": true,
          "cost": "0.00",
          "shipCode": "Retail Store Standard"
        }
      ]
    }
  ],
  "giftCards": [],
  "deliveryInstructions": "",
  "smsMobileNumber": "",
  "shippingCountry": "United Kingdom",
  "savedAddresses": [],
  "ageVerificationDeliveryConfirmationRequired": false,
  "estimatedDelivery": [
    "No later than Saturday 15 September 2018"
  ],
  "checkoutDiscountIntroEspot": {
    "EspotContents": {
      "cmsMobileContent": {
        "pageId": 67526,
        "pageName": "static-0000067526",
        "breadcrumb": "CP PROMO CODE INT",
        "baseline": "82",
        "revision": "0",
        "lastPublished": "2017-12-21 10:58:46.057936",
        "contentPath": "cms/pages/static/static-0000067526/static-0000067526.html",
        "seoUrl": "",
        "mobileCMSUrl": ""
      },
      "encodedcmsMobileContent": "%3C%21--+CMS+Page+Version%3A+static-0000067526+baseline%3A+82+revision%3A+0+published%3A+2017-12-21+10%3A58%3A46.057936%3ALisa+Schneider+--%3E+%3C%21--+CMS+Page+Data+Start+--%3E+%3Cscript+type%3D%22text%2Fjavascript%22%3E+%2F%2F%3C%21%5BCDATA%5B+var+cmsPage67526+%3D+%7B+%22pageId%22%3A+67526%2C+%22pageName%22%3A+%22static-0000067526%22%2C+%22breadcrumb%22%3A+%22CP+PROMO+CODE+INT%22%2C+%22baseline%22%3A+%2282%22%2C+%22revision%22%3A+%220%22%2C+%22lastPublished%22%3A+%222017-12-21+10%3A58%3A46.057936%22%2C+%22contentPath%22%3A+%22cms%2Fpages%2Fstatic%2Fstatic-0000067526%2Fstatic-0000067526.html%22%2C+%22seoUrl%22%3A+%22%22%2C+%22mobileCMSUrl%22%3A+%22%22+%7D+%2F%2F%5D%5D%3E+%3C%2Fscript%3E+%3C%21--+CMS+Page+Data+End+--%3E+%3C%21--+CMS+Temp+Version%3A+template-0000003109+baseline%3A+4+revision%3A+0+description%3A+Basic+Espot+-+Secure+%28MASTER%29+%28REF+0000003100%29+published%3A+2010-11-22+13%3A18%3A18.094147+--%3E+%3Clink+rel%3D%22stylesheet%22+type%3D%22text%2Fcss%22+href%3D%22%2Fwcsstore%2FConsumerDirectStorefrontAssetStore%2Fimages%2Fcolors%2Fcolor7%2Fcms%2Ftemplates%2Fstatic%2Ftemplate-0000003109%2Fcss%2Fdefault.css%22+%2F%3E+%3Cdiv%3E+%3Ca+href%3D%22%2Fen%2Ftsuk%2Fcategory%2Finternational-delivery-4043189%2Fhome%3FTS%3D1421168282762%26amp%3Bintcmpid%3DCHECKOUT_SHIPPING%22+title%3D%22FREE+STANDARD+SHIPPING*+FIND+OUT+MORE%22%3E%3Cimg+src%3D%22%2Fwcsstore%2FConsumerDirectStorefrontAssetStore%2Fimages%2Fcolors%2Fcolor7%2Fcms%2Fpages%2Fstatic%2Fstatic-0000067526%2Fimages%2FCheckout-UK.svg%22+alt%3D%22FREE+STANDARD+SHIPPING*+FIND+OUT+MORE%22+%2F%3E%3C%2Fa%3E+%3C%2Fdiv%3E%3C%21--+Additional+page+assets%3A+%2Fimages%2FCheckout-UK_mobile.svg+--%3E%3C%21--Using+Master+Template%3A+%2Fstatic%2Ftemplate-0000003100+--%3E+"
    }
  },
  "billingDetails": {
    "addressDetailsId": -1,
    "nameAndPhone": {
      "lastName": "Dono",
      "telephone": "0123456789",
      "title": "Ms",
      "firstName": "Enzo"
    },
    "address": {
      "address1": "Apartment 50, Galleria Court, Sumner Road",
      "address2": "",
      "city": "LONDON",
      "state": "",
      "country": "United Kingdom",
      "postcode": "SE15 6PW"
    }
  },
  "deliveryDetails": {
    "addressDetailsId": -1,
    "nameAndPhone": {
      "lastName": "D'Onofrio",
      "telephone": "07432477132",
      "title": "Mr",
      "firstName": "Enzo"
    },
    "address": {
      "address1": "214 Oxford Street",
      "address2": "Oxford Circus",
      "city": "West End",
      "state": "",
      "country": "United Kingdom",
      "postcode": "W1W 8LG"
    }
  }
}
