[
  {
    "analyticsId": "arcadiaevansmobile",
    "googleTagManagerId": "GTM-WF2JCNR",
    "stagingReportSuiteId": "arcadiaevansstage",
    "prodReportSuiteId": "arcadiaevansrollup-prod",
    "brandName": "evans",
    "brandDisplayName": "Evans",
    "siteId": 12553,
    "storeCode": "evuk",
    "brandCode": "ev",
    "region": "uk",
    "brandId": 4,
    "name": "Evans UK",
    "lang": "en",
    "locale": "gb",
    "currencyCode": "GBP",
    "currencySymbol": "\u00A3",
    "country": "United Kingdom",
    "defaultLanguage": "English",
    "bazaarVoiceId": "6027-en_gb",
    "domains": {
      "prod": [
        "m.evans.co.uk",
        "evans.co.uk",
        "www.evans.co.uk",
        "www.evans.ltd.uk",
        "evans.ltd.uk",
        "www.evansfashion.com",
        "evansfashion.com"
      ],
      "EBT": [
        "www.evans.co.uk.arcadiagroup.co.uk"
      ]
    },
    "adobeTrackingServer": "sstats.evans.co.uk",
    "mediaHostname": "media.evans.co.uk",
    "peeriusDomain": "evans",
    "peeriusLang": "en-gb",
    "opentagRef": "evansuk",
    "language": "en-gb",
    "googleSiteVerification": "tamgaKdanfvksPq0OSqMtReqWYo7ywZ5ZaWyya90MWQ",
    "catalogId": "33054",
    "langId": "-1",
    "preferredISOs": ["GB"]
  },
  {
    "analyticsId": "arcadiaevdemobile",
    "googleTagManagerId": "GTM-WF2JCNR",
    "stagingReportSuiteId": "arcadiaevansstage",
    "prodReportSuiteId": "arcadiaevansrollup-prod",
    "brandName": "evans",
    "brandDisplayName": "Evans",
    "siteId": 13070,
    "storeCode": "evde",
    "brandCode": "ev",
    "region": "de",
    "brandId": 4,
    "name": "Evans DE",
    "lang": "de",
    "locale": "de",
    "currencyCode": "EUR",
    "currencySymbol": "\u20AC",
    "country": "Germany",
    "defaultLanguage": "German",
    "bazaarVoiceId": "6027-de_de",
    "domains": {
      "prod": [
        "m.evansmode.de",
        "www.evansmode.de",
        "evansmode.de"
      ],
      "EBT": [
        "www.evansmode.de.arcadiagroup.co.uk",
        "www.evansmode.de.arcadiagroup.de"
      ]
    },
    "adobeTrackingServer": "sstats.evansmode.de",
    "mediaHostname": "media.evans.co.uk",
    "peeriusDomain": "evansmodede",
    "peeriusLang": "de",
    "opentagRef": "evansde",
    "language": "de-DE",
    "googleSiteVerification": "926m63Xlxy-jBEDe6dzQXq2LHEmWQoYUYIYO05G65qo",
    "catalogId": "34082",
    "langId": "-3",
    "preferredISOs": ["DE"]
  },
  {
    "analyticsId": "arcadiaeveumobile",
    "googleTagManagerId": "GTM-WF2JCNR",
    "stagingReportSuiteId": "arcadiaevansstage",
    "prodReportSuiteId": "arcadiaevansrollup-prod",
    "brandName": "evans",
    "brandDisplayName": "Evans",
    "siteId": 13071,
    "storeCode": "eveu",
    "brandCode": "ev",
    "region": "eu",
    "brandId": 4,
    "name": "Evans EU",
    "lang": "en",
    "locale": "eu",
    "currencyCode": "EUR",
    "currencySymbol": "\u20AC",
    "country": "default",
    "defaultLanguage": "English",
    "bazaarVoiceId": "6027-en_eu",
    "domains": {
      "prod": [
        "m.euro.evansfashion.com",
        "euro.evansfashion.com",
        "www.euro.evansfashion.com"
      ],
      "EBT": [
        "euro.evansfashion.com.arcadiagroup.co.uk"
      ]
    },
    "adobeTrackingServer": "sstats.evansfashion.com",
    "mediaHostname": "media.evans.co.uk",
    "peeriusDomain": "euroevansfashion",
    "peeriusLang": "en",
    "opentagRef": "evanseu",
    "language": "en-eu",
    "googleSiteVerification": "grKxvOA5GIX2hfgQV3vAeI_1a-kxbIrtVgOLRnITg-U",
    "catalogId": "34084",
    "langId": "-1",
    "preferredISOs": ["AD", "AT", "BE", "EE", "FI", "DE", "FR", "GR", "VA", "IE", "IT", "LI", "LU", "LV", "MC", "ME", "NL", "PT", "SM", "SK", "ES", "CH"]
  },
  {
    "analyticsId": "arcadiaevusmobile",
    "googleTagManagerId": "GTM-WF2JCNR",
    "stagingReportSuiteId": "arcadiaevansstage",
    "prodReportSuiteId": "arcadiaevansrollup-prod",
    "brandName": "evans",
    "brandDisplayName": "Evans",
    "siteId": 13072,
    "storeCode": "evus",
    "brandCode": "ev",
    "region": "us",
    "brandId": 4,
    "name": "Evans US",
    "lang": "en",
    "locale": "us",
    "currencyCode": "USD",
    "currencySymbol": "$",
    "country": "United States",
    "defaultLanguage": "English",
    "bazaarVoiceId": "6027-en_us",
    "domains": {
      "prod": [
        "m.evansusa.com",
        "www.evansusa.com",
        "evansusa.com"
      ],
      "EBT": [
        "www.evansusa.com.arcadiagroup.co.uk"
      ]
    },
    "adobeTrackingServer": "sstats.evansusa.com",
    "mediaHostname": "media.evans.co.uk",
    "peeriusDomain": "evansusa",
    "peeriusLang": "us",
    "opentagRef": "evansus",
    "language": "en-us",
    "googleSiteVerification": "skM3AmDV-KHu6VsgGZYN2SAkdSA_EzzuAD24JhE_DhM",
    "catalogId": "34086",
    "langId": "-1",
    "preferredISOs": ["US"]
  },
  {
    "analyticsId": "arcadiaevmobile",
    "googleTagManagerId": "GTM-WF2JCNR",
    "stagingReportSuiteId": "arcadiaevansstage",
    "prodReportSuiteId": "arcadiaevansrollup-prod",
    "brandName": "evans",
    "brandDisplayName": "Evans",
    "brandCode": "ev",
    "country": "nonEU",
    "defaultLanguage": "English",
    "domains": {
      "prod": [
        "m.evans.co.uk",
        "www.evans.co.uk"
      ],
      "EBT": [
        "www.evans.co.uk.arcadiagroup.co.uk"
      ]
    },
    "mediaHostname": "media.evans.co.uk",
    "preferredISOs": ["GB"]
  }
]
