// Jest Snapshot v1, https://goo.gl/fbAQLP

exports[`<KlarnaForm /> @renders in default state 1`] = `
<section
  className="KlarnaForm"
>
  <div
    className="KlarnaForm-container"
  />
</section>
`;

exports[`<KlarnaForm /> @renders shows check eligibility button 1`] = `
<section
  className="KlarnaForm"
>
  <div
    className="KlarnaForm-container"
  />
  <Button
    clickHandler={[Function]}
  >
    Check eligibility
  </Button>
</section>
`;
