// Jest Snapshot v1, https://goo.gl/fbAQLP

exports[`<Arrow /> @renders should render correctly 1`] = `
<button
  aria-hidden={true}
  className="ProductCarousel-arrow ProductCarousel-arrow--forward"
  onClick={[MockFunction]}
/>
`;

exports[`<ProductCarousel /> @connected should render correctly 1`] = `
<Connect(ProductCarousel)>
  <ProductCarousel
    canRemoveProduct={false}
    carouselSize={5}
    dispatch={[Function]}
    hidePrice={false}
    hideProductMeta={false}
    hideProductName={false}
    hideQuickView={false}
    isImageFallbackEnabled={false}
    onProductLinkClick={[Function]}
    onProductRemove={[Function]}
    products={Array []}
  />
</Connect(ProductCarousel)>
`;

exports[`<ProductCarousel /> @renders should render supplied products 1`] = `
<div
  className="ProductCarousel"
>
  <Hammer
    onSwipe={[Function]}
  >
    <div
      className="ProductCarousel-container"
    >
      <Connect(ProductCarouselItem)
        amplienceUrl="url"
        canRemoveProduct={false}
        hidePrice={false}
        hideProductMeta={false}
        hideProductName={false}
        hideQuickView={false}
        imageUrl="http://media.topshop.com/wcsstore/TopShop/images/catalog/TS20N01WNUD_2col_F_1.jpg"
        isImageFallbackEnabled={false}
        key="0"
        lazyLoad={true}
        name="Nails In Nice'N'Neutral"
        onLinkClick={[Function]}
        onProductRemove={[Function]}
        productId={1708381}
        salePrice="2"
        style={
          Object {
            "width": "50%",
          }
        }
        unitPrice="5"
      />
      <Connect(ProductCarouselItem)
        amplienceUrl="url"
        canRemoveProduct={false}
        hidePrice={false}
        hideProductMeta={false}
        hideProductName={false}
        hideQuickView={false}
        imageUrl="http://media.topshop.com/wcsstore/TopShop/images/catalog/TS20N01WNUD_2col_F_1.jpg"
        isImageFallbackEnabled={false}
        key="1"
        lazyLoad={true}
        name="Nails In Nice'N'Neutral"
        onLinkClick={[Function]}
        onProductRemove={[Function]}
        productId={1708381}
        salePrice="2"
        style={
          Object {
            "width": "50%",
          }
        }
        unitPrice="5"
      />
    </div>
  </Hammer>
</div>
`;
