// Jest Snapshot v1, https://goo.gl/fbAQLP

exports[`ChangePassword @render has BackToAccountLink with Continue to checkout text 1`] = `
<section
  className="ChangePassword"
>
  <form
    className="MyAccount-form MyAccount-wrapper"
    onSubmit={[Function]}
  >
    <Connect(Input)
      errors={Object {}}
      field={
        Object {
          "isDirty": true,
          "isFocused": false,
          "isTouched": true,
          "value": "Arcadia1",
        }
      }
      isDisabled={true}
      isRequired={true}
      label="Current password"
      name="oldPassword"
      placeholder="Current password"
      setField={[Function]}
      touchedField={[Function]}
      type="password"
    />
    <h3>
      New password
    </h3>
    <p>
      Passwords must have at least six characters including one digit.
    </p>
    <Connect(Input)
      errors={Object {}}
      field={
        Object {
          "isDirty": true,
          "isFocused": false,
          "isTouched": true,
          "value": "Arcadia2",
        }
      }
      isDisabled={true}
      isRequired={true}
      label="New password"
      name="newPassword"
      placeholder="New password"
      setField={[Function]}
      touchedField={[Function]}
      type="password"
    />
    <Connect(Input)
      errors={Object {}}
      field={
        Object {
          "isDirty": true,
          "isFocused": false,
          "isTouched": true,
          "value": "Arcadia2",
        }
      }
      isDisabled={true}
      isRequired={true}
      label="Confirm new password"
      name="newPasswordConfirm"
      placeholder="Confirm new password"
      setField={[Function]}
      touchedField={[Function]}
      type="password"
    />
    <Button
      className="ChangePassword-saveChanges"
      isDisabled={true}
      type="submit"
    >
      SAVE CHANGES
    </Button>
    <Message
      isCompact={false}
      message="Your password has been successfully changed."
      type="confirm"
    />
    <div
      className=""
    >
      <p
        className="MyAccount-linkChange"
        onClick={[Function]}
        role="presentation"
      >
         
        Change password again?
      </p>
      <BackToAccountLink
        clickHandler={[Function]}
        text="Continue to checkout"
      />
    </div>
  </form>
</section>
`;

exports[`ChangePassword @render has correct fields 1`] = `
<section
  className="ChangePassword"
>
  <AccountHeader
    label="Back to My Account"
    link="/my-account"
    title="My password"
  />
  <form
    className="MyAccount-form MyAccount-wrapper"
    onSubmit={[Function]}
  >
    <Connect(Input)
      errors={Object {}}
      field={
        Object {
          "isDirty": true,
          "isFocused": false,
          "isTouched": true,
          "value": "Arcadia1",
        }
      }
      isDisabled={false}
      isRequired={true}
      label="Current password"
      name="oldPassword"
      placeholder="Current password"
      setField={[Function]}
      touchedField={[Function]}
      type="password"
    />
    <h3>
      New password
    </h3>
    <p>
      Passwords must have at least six characters including one digit.
    </p>
    <Connect(Input)
      errors={Object {}}
      field={
        Object {
          "isDirty": true,
          "isFocused": false,
          "isTouched": true,
          "value": "Arcadia2",
        }
      }
      isDisabled={false}
      isRequired={true}
      label="New password"
      name="newPassword"
      placeholder="New password"
      setField={[Function]}
      touchedField={[Function]}
      type="password"
    />
    <Connect(Input)
      errors={Object {}}
      field={
        Object {
          "isDirty": true,
          "isFocused": false,
          "isTouched": true,
          "value": "Arcadia2",
        }
      }
      isDisabled={false}
      isRequired={true}
      label="Confirm new password"
      name="newPasswordConfirm"
      placeholder="Confirm new password"
      setField={[Function]}
      touchedField={[Function]}
      type="password"
    />
    <Button
      className="ChangePassword-saveChanges"
      isDisabled={false}
      type="submit"
    >
      SAVE CHANGES
    </Button>
    <Message
      isCompact={false}
      type="confirm"
    />
    <div
      className=" hidden"
    >
      <p
        className="MyAccount-linkChange"
        onClick={[Function]}
        role="presentation"
      >
         
        Change password again?
      </p>
      <BackToAccountLink
        clickHandler={[Function]}
        text="Back to My Account"
      />
    </div>
  </form>
</section>
`;

exports[`ChangePassword @render has errors 1`] = `
<section
  className="ChangePassword"
>
  <AccountHeader
    label="Back to My Account"
    link="/my-account"
    title="My password"
  />
  <form
    className="MyAccount-form MyAccount-wrapper"
    onSubmit={[Function]}
  >
    <Connect(Input)
      errors={Object {}}
      field={
        Object {
          "isDirty": false,
          "isFocused": false,
          "isTouched": false,
          "value": "",
        }
      }
      isDisabled={false}
      isRequired={true}
      label="Current password"
      name="oldPassword"
      placeholder="Current password"
      setField={[Function]}
      touchedField={[Function]}
      type="password"
    />
    <h3>
      New password
    </h3>
    <p>
      Passwords must have at least six characters including one digit.
    </p>
    <Connect(Input)
      errors={Object {}}
      field={
        Object {
          "isDirty": false,
          "isFocused": false,
          "isTouched": false,
          "value": "",
        }
      }
      isDisabled={false}
      isRequired={true}
      label="New password"
      name="newPassword"
      placeholder="New password"
      setField={[Function]}
      touchedField={[Function]}
      type="password"
    />
    <Connect(Input)
      errors={Object {}}
      field={
        Object {
          "isDirty": false,
          "isFocused": false,
          "isTouched": false,
          "value": "",
        }
      }
      isDisabled={false}
      isRequired={true}
      label="Confirm new password"
      name="newPasswordConfirm"
      placeholder="Confirm new password"
      setField={[Function]}
      touchedField={[Function]}
      type="password"
    />
    <Button
      className="ChangePassword-saveChanges"
      isDisabled={false}
      type="submit"
    >
      SAVE CHANGES
    </Button>
    <Message
      isCompact={false}
      type="confirm"
    />
    <div
      className=" hidden"
    >
      <p
        className="MyAccount-linkChange"
        onClick={[Function]}
        role="presentation"
      >
         
        Change password again?
      </p>
      <BackToAccountLink
        clickHandler={[Function]}
        text="Back to My Account"
      />
    </div>
  </form>
</section>
`;

exports[`ChangePassword @render has success 1`] = `
<section
  className="ChangePassword"
>
  <AccountHeader
    label="Back to My Account"
    link="/my-account"
    title="My password"
  />
  <form
    className="MyAccount-form MyAccount-wrapper"
    onSubmit={[Function]}
  >
    <Connect(Input)
      errors={Object {}}
      field={
        Object {
          "isDirty": false,
          "isFocused": false,
          "isTouched": false,
          "value": "",
        }
      }
      isDisabled={true}
      isRequired={true}
      label="Current password"
      name="oldPassword"
      placeholder="Current password"
      setField={[Function]}
      touchedField={[Function]}
      type="password"
    />
    <h3>
      New password
    </h3>
    <p>
      Passwords must have at least six characters including one digit.
    </p>
    <Connect(Input)
      errors={Object {}}
      field={
        Object {
          "isDirty": false,
          "isFocused": false,
          "isTouched": false,
          "value": "",
        }
      }
      isDisabled={true}
      isRequired={true}
      label="New password"
      name="newPassword"
      placeholder="New password"
      setField={[Function]}
      touchedField={[Function]}
      type="password"
    />
    <Connect(Input)
      errors={Object {}}
      field={
        Object {
          "isDirty": false,
          "isFocused": false,
          "isTouched": false,
          "value": "",
        }
      }
      isDisabled={true}
      isRequired={true}
      label="Confirm new password"
      name="newPasswordConfirm"
      placeholder="Confirm new password"
      setField={[Function]}
      touchedField={[Function]}
      type="password"
    />
    <Button
      className="ChangePassword-saveChanges"
      isDisabled={true}
      type="submit"
    >
      SAVE CHANGES
    </Button>
    <Message
      isCompact={false}
      type="confirm"
    />
    <div
      className=""
    >
      <p
        className="MyAccount-linkChange"
        onClick={[Function]}
        role="presentation"
      >
         
        Change password again?
      </p>
      <BackToAccountLink
        clickHandler={[Function]}
        text="Back to My Account"
      />
    </div>
  </form>
</section>
`;

exports[`ChangePassword @render has success but result constains an error 1`] = `
<section
  className="ChangePassword"
>
  <AccountHeader
    label="Back to My Account"
    link="/my-account"
    title="My password"
  />
  <form
    className="MyAccount-form MyAccount-wrapper"
    onSubmit={[Function]}
  >
    <Connect(Input)
      errors={Object {}}
      field={
        Object {
          "isDirty": true,
          "isFocused": false,
          "isTouched": true,
          "value": "Arcadia1",
        }
      }
      isDisabled={false}
      isRequired={true}
      label="Current password"
      name="oldPassword"
      placeholder="Current password"
      setField={[Function]}
      touchedField={[Function]}
      type="password"
    />
    <h3>
      New password
    </h3>
    <p>
      Passwords must have at least six characters including one digit.
    </p>
    <Connect(Input)
      errors={Object {}}
      field={
        Object {
          "isDirty": true,
          "isFocused": false,
          "isTouched": true,
          "value": "Arcadia2",
        }
      }
      isDisabled={false}
      isRequired={true}
      label="New password"
      name="newPassword"
      placeholder="New password"
      setField={[Function]}
      touchedField={[Function]}
      type="password"
    />
    <Connect(Input)
      errors={Object {}}
      field={
        Object {
          "isDirty": true,
          "isFocused": false,
          "isTouched": true,
          "value": "Arcadia2",
        }
      }
      isDisabled={false}
      isRequired={true}
      label="Confirm new password"
      name="newPasswordConfirm"
      placeholder="Confirm new password"
      setField={[Function]}
      touchedField={[Function]}
      type="password"
    />
    <Button
      className="ChangePassword-saveChanges"
      isDisabled={false}
      type="submit"
    >
      SAVE CHANGES
    </Button>
    <Message
      isCompact={false}
      message="Password needs to be changed"
      type="error"
    />
    <div
      className=" hidden"
    >
      <p
        className="MyAccount-linkChange"
        onClick={[Function]}
        role="presentation"
      >
         
        Change password again?
      </p>
      <BackToAccountLink
        clickHandler={[Function]}
        text="Back to My Account"
      />
    </div>
  </form>
</section>
`;

exports[`ChangePassword @render in default state 1`] = `
<section
  className="ChangePassword"
>
  <AccountHeader
    label="Back to My Account"
    link="/my-account"
    title="My password"
  />
  <form
    className="MyAccount-form MyAccount-wrapper"
    onSubmit={[Function]}
  >
    <Connect(Input)
      errors={Object {}}
      field={
        Object {
          "isDirty": false,
          "isFocused": false,
          "isTouched": false,
          "value": "",
        }
      }
      isDisabled={false}
      isRequired={true}
      label="Current password"
      name="oldPassword"
      placeholder="Current password"
      setField={[Function]}
      touchedField={[Function]}
      type="password"
    />
    <h3>
      New password
    </h3>
    <p>
      Passwords must have at least six characters including one digit.
    </p>
    <Connect(Input)
      errors={Object {}}
      field={
        Object {
          "isDirty": false,
          "isFocused": false,
          "isTouched": false,
          "value": "",
        }
      }
      isDisabled={false}
      isRequired={true}
      label="New password"
      name="newPassword"
      placeholder="New password"
      setField={[Function]}
      touchedField={[Function]}
      type="password"
    />
    <Connect(Input)
      errors={Object {}}
      field={
        Object {
          "isDirty": false,
          "isFocused": false,
          "isTouched": false,
          "value": "",
        }
      }
      isDisabled={false}
      isRequired={true}
      label="Confirm new password"
      name="newPasswordConfirm"
      placeholder="Confirm new password"
      setField={[Function]}
      touchedField={[Function]}
      type="password"
    />
    <Button
      className="ChangePassword-saveChanges"
      isDisabled={false}
      type="submit"
    >
      SAVE CHANGES
    </Button>
    <Message
      isCompact={false}
      type="confirm"
    />
    <div
      className=" hidden"
    >
      <p
        className="MyAccount-linkChange"
        onClick={[Function]}
        role="presentation"
      >
         
        Change password again?
      </p>
      <BackToAccountLink
        clickHandler={[Function]}
        text="Back to My Account"
      />
    </div>
  </form>
</section>
`;

exports[`ChangePassword @render should have no AccountHeader component if resetPassword is true 1`] = `
<section
  className="ChangePassword"
>
  <form
    className="MyAccount-form MyAccount-wrapper"
    onSubmit={[Function]}
  >
    <Connect(Input)
      errors={Object {}}
      field={
        Object {
          "isDirty": false,
          "isFocused": false,
          "isTouched": false,
          "value": "",
        }
      }
      isDisabled={false}
      isRequired={true}
      label="Current password"
      name="oldPassword"
      placeholder="Current password"
      setField={[Function]}
      touchedField={[Function]}
      type="password"
    />
    <h3>
      New password
    </h3>
    <p>
      Passwords must have at least six characters including one digit.
    </p>
    <Connect(Input)
      errors={Object {}}
      field={
        Object {
          "isDirty": false,
          "isFocused": false,
          "isTouched": false,
          "value": "",
        }
      }
      isDisabled={false}
      isRequired={true}
      label="New password"
      name="newPassword"
      placeholder="New password"
      setField={[Function]}
      touchedField={[Function]}
      type="password"
    />
    <Connect(Input)
      errors={Object {}}
      field={
        Object {
          "isDirty": false,
          "isFocused": false,
          "isTouched": false,
          "value": "",
        }
      }
      isDisabled={false}
      isRequired={true}
      label="Confirm new password"
      name="newPasswordConfirm"
      placeholder="Confirm new password"
      setField={[Function]}
      touchedField={[Function]}
      type="password"
    />
    <Button
      className="ChangePassword-saveChanges"
      isDisabled={false}
      type="submit"
    >
      SAVE CHANGES
    </Button>
    <Message
      isCompact={false}
      type="confirm"
    />
    <div
      className=" hidden"
    >
      <p
        className="MyAccount-linkChange"
        onClick={[Function]}
        role="presentation"
      >
         
        Change password again?
      </p>
      <BackToAccountLink
        clickHandler={[Function]}
        text="Back to My Account"
      />
    </div>
  </form>
</section>
`;

exports[`ChangePassword @render successfully submitted 1`] = `
<section
  className="ChangePassword"
>
  <AccountHeader
    label="Back to My Account"
    link="/my-account"
    title="My password"
  />
  <form
    className="MyAccount-form MyAccount-wrapper"
    onSubmit={[Function]}
  >
    <Connect(Input)
      errors={Object {}}
      field={
        Object {
          "isDirty": true,
          "isFocused": false,
          "isTouched": true,
          "value": "Arcadia1",
        }
      }
      isDisabled={true}
      isRequired={true}
      label="Current password"
      name="oldPassword"
      placeholder="Current password"
      setField={[Function]}
      touchedField={[Function]}
      type="password"
    />
    <h3>
      New password
    </h3>
    <p>
      Passwords must have at least six characters including one digit.
    </p>
    <Connect(Input)
      errors={Object {}}
      field={
        Object {
          "isDirty": true,
          "isFocused": false,
          "isTouched": true,
          "value": "Arcadia2",
        }
      }
      isDisabled={true}
      isRequired={true}
      label="New password"
      name="newPassword"
      placeholder="New password"
      setField={[Function]}
      touchedField={[Function]}
      type="password"
    />
    <Connect(Input)
      errors={Object {}}
      field={
        Object {
          "isDirty": true,
          "isFocused": false,
          "isTouched": true,
          "value": "Arcadia2",
        }
      }
      isDisabled={true}
      isRequired={true}
      label="Confirm new password"
      name="newPasswordConfirm"
      placeholder="Confirm new password"
      setField={[Function]}
      touchedField={[Function]}
      type="password"
    />
    <Button
      className="ChangePassword-saveChanges"
      isDisabled={true}
      type="submit"
    >
      SAVE CHANGES
    </Button>
    <Message
      isCompact={false}
      message="Your password has been successfully changed."
      type="confirm"
    />
    <div
      className=""
    >
      <p
        className="MyAccount-linkChange"
        onClick={[Function]}
        role="presentation"
      >
         
        Change password again?
      </p>
      <BackToAccountLink
        clickHandler={[Function]}
        text="Back to My Account"
      />
    </div>
  </form>
</section>
`;
